{
    "1": {
        "method": "addColumn",
        "params": [
            "serverconsole_servers",
            {
                "name": "in_maintenance",
                "type": "BIT",
                "length": null,
                "decimals": null,
                "values": null,
                "allow_null": false,
                "default": "0",
                "comment": "",
                "unsigned": false,
                "zerofill": false,
                "auto_increment": false,
                "binary": false
            }
        ]
    },
    "2": {
        "method": "addColumn",
        "params": [
            "serverconsole_servers",
            {
                "name": "maintenance_info",
                "type": "LONGTEXT",
                "length": null,
                "decimals": null,
                "values": null,
                "allow_null": true,
                "default": null,
                "comment": "",
                "unsigned": false,
                "zerofill": false,
                "auto_increment": false,
                "binary": false
            }
        ]
    },
    "3": {
        "method": "addColumn",
        "params": [
            "serverconsole_servers",
            {
                "name": "maintenance_estimated_finished_time",
                "type": "TIMESTAMP",
                "length": null,
                "decimals": null,
                "values": null,
                "allow_null": true,
                "default": null,
                "comment": "",
                "unsigned": false,
                "zerofill": false,
                "auto_increment": false,
                "binary": false
            }
        ]
    }
}