{
    "serverconsole_servers": {
        "name": "serverconsole_servers",
        "columns": {
            "id": {
                "allow_null": false,
                "auto_increment": true,
                "binary": false,
                "comment": "ID Number",
                "decimals": null,
                "default": null,
                "length": 20,
                "name": "id",
                "type": "BIGINT",
                "unsigned": true,
                "values": [],
                "zerofill": false
            },
            "name": {
                "allow_null": false,
                "auto_increment": false,
                "binary": false,
                "comment": "",
                "decimals": null,
                "default": "",
                "length": 191,
                "name": "name",
                "type": "VARCHAR",
                "unsigned": false,
                "values": [],
                "zerofill": false
            },
            "domain": {
                "allow_null": false,
                "auto_increment": false,
                "binary": false,
                "comment": "",
                "decimals": null,
                "default": "",
                "length": 191,
                "name": "domain",
                "type": "VARCHAR",
                "unsigned": false,
                "values": [],
                "zerofill": false
            },
            "ip": {
                "allow_null": false,
                "auto_increment": false,
                "binary": false,
                "comment": "",
                "decimals": null,
                "default": "",
                "length": 15,
                "name": "ip",
                "type": "VARCHAR",
                "unsigned": false,
                "values": [],
                "zerofill": false
            },
            "serviceport": {
                "allow_null": true,
                "auto_increment": false,
                "binary": false,
                "comment": "",
                "decimals": null,
                "default": null,
                "length": 2,
                "name": "serviceport",
                "type": "SMALLINT",
                "unsigned": true,
                "values": [],
                "zerofill": false
            },
            "comment": {
                "allow_null": true,
                "auto_increment": false,
                "binary": false,
                "comment": "",
                "decimals": null,
                "default": null,
                "length": 0,
                "name": "comment",
                "type": "LONGTEXT",
                "unsigned": false,
                "values": [],
                "zerofill": false
            },
            "check_server": {
                "allow_null": false,
                "auto_increment": false,
                "binary": false,
                "comment": "",
                "decimals": null,
                "default": 0,
                "length": 1,
                "name": "check_server",
                "type": "BIT",
                "unsigned": false,
                "values": [],
                "zerofill": false
            },
            "last_status_history": {
                "allow_null": true,
                "auto_increment": false,
                "binary": false,
                "comment": "",
                "decimals": null,
                "default": null,
                "length": 20,
                "name": "last_status_history",
                "type": "BIGINT",
                "unsigned": false,
                "values": [],
                "zerofill": false
            },
            "status_script_url": {
                "allow_null": true,
                "auto_increment": false,
                "binary": false,
                "comment": "",
                "decimals": null,
                "default": null,
                "length": 0,
                "name": "status_script_url",
                "type": "MEDIUMTEXT",
                "unsigned": false,
                "values": [],
                "zerofill": false
            },
            "in_maintenance": {
                "allow_null": false,
                "auto_increment": false,
                "binary": false,
                "comment": "",
                "decimals": null,
                "default": 0,
                "length": 1,
                "name": "in_maintenance",
                "type": "BIT",
                "unsigned": false,
                "values": [],
                "zerofill": false
            },
            "maintenance_info": {
                "allow_null": true,
                "auto_increment": false,
                "binary": false,
                "comment": "",
                "decimals": null,
                "default": null,
                "length": 0,
                "name": "maintenance_info",
                "type": "LONGTEXT",
                "unsigned": false,
                "values": [],
                "zerofill": false
            },
            "maintenance_estimated_finished_time": {
                "allow_null": true,
                "auto_increment": false,
                "binary": false,
                "comment": "",
                "decimals": null,
                "default": null,
                "length": 0,
                "name": "maintenance_estimated_finished_time",
                "type": "TIMESTAMP",
                "unsigned": false,
                "values": [],
                "zerofill": false
            },
            "notification_groups": {
                "allow_null": true,
                "auto_increment": false,
                "binary": false,
                "comment": "",
                "decimals": null,
                "default": null,
                "length": 254,
                "name": "notification_groups",
                "type": "VARCHAR",
                "unsigned": false,
                "values": [],
                "zerofill": false
            },
            "tolerance_counter": {
                "allow_null": false,
                "auto_increment": false,
                "binary": false,
                "comment": "",
                "decimals": null,
                "default": "",
                "length": 0,
                "name": "tolerance_counter",
                "type": "TINYTEXT",
                "unsigned": false,
                "values": [],
                "zerofill": false
            }
        },
        "indexes": {
            "PRIMARY": {
                "type": "primary",
                "name": "PRIMARY",
                "length": [
                    null
                ],
                "columns": [
                    "id"
                ]
            }
        },
        "collation": "utf8mb4_unicode_ci",
        "engine": "InnoDB"
    },
    "serverconsole_server_check_history": {
        "name": "serverconsole_server_check_history",
        "columns": {
            "id": {
                "allow_null": false,
                "auto_increment": true,
                "binary": false,
                "comment": "ID Number",
                "decimals": null,
                "default": null,
                "length": 20,
                "name": "id",
                "type": "BIGINT",
                "unsigned": true,
                "values": [],
                "zerofill": false
            },
            "serverconsole_servers_id": {
                "allow_null": false,
                "auto_increment": false,
                "binary": false,
                "comment": "",
                "decimals": null,
                "default": "0",
                "length": 20,
                "name": "serverconsole_servers_id",
                "type": "BIGINT",
                "unsigned": false,
                "values": [],
                "zerofill": false
            },
            "cpu_load_now": {
                "allow_null": false,
                "auto_increment": false,
                "binary": false,
                "comment": "",
                "decimals": 2,
                "default": "0.00",
                "length": 11,
                "name": "cpu_load_now",
                "type": "FLOAT",
                "unsigned": false,
                "values": [],
                "zerofill": false
            },
            "cpu_load_5min": {
                "allow_null": false,
                "auto_increment": false,
                "binary": false,
                "comment": "",
                "decimals": 2,
                "default": "0.00",
                "length": 11,
                "name": "cpu_load_5min",
                "type": "FLOAT",
                "unsigned": false,
                "values": [],
                "zerofill": false
            },
            "cpu_load_15min": {
                "allow_null": false,
                "auto_increment": false,
                "binary": false,
                "comment": "",
                "decimals": 2,
                "default": "0.00",
                "length": 11,
                "name": "cpu_load_15min",
                "type": "FLOAT",
                "unsigned": false,
                "values": [],
                "zerofill": false
            },
            "ram_used": {
                "allow_null": false,
                "auto_increment": false,
                "binary": false,
                "comment": "",
                "decimals": 2,
                "default": "0.00",
                "length": 11,
                "name": "ram_used",
                "type": "FLOAT",
                "unsigned": false,
                "values": [],
                "zerofill": false
            },
            "ram_total": {
                "allow_null": false,
                "auto_increment": false,
                "binary": false,
                "comment": "",
                "decimals": 2,
                "default": "0.00",
                "length": 11,
                "name": "ram_total",
                "type": "FLOAT",
                "unsigned": false,
                "values": [],
                "zerofill": false
            },
            "ram_percentage": {
                "name": "ram_percentage",
                "type": "FLOAT",
                "length": 4,
                "decimals": 2,
                "values": [],
                "allow_null": false,
                "default": "0.00",
                "comment": "",
                "unsigned": false,
                "zerofill": false,
                "auto_increment": false,
                "binary": false
            },
            "diskspace_free": {
                "allow_null": false,
                "auto_increment": false,
                "binary": false,
                "comment": "",
                "decimals": 2,
                "default": "0.00",
                "length": 11,
                "name": "diskspace_free",
                "type": "FLOAT",
                "unsigned": false,
                "values": [],
                "zerofill": false
            },
            "diskspace_total": {
                "allow_null": false,
                "auto_increment": false,
                "binary": false,
                "comment": "",
                "decimals": 2,
                "default": "0.00",
                "length": 11,
                "name": "diskspace_total",
                "type": "FLOAT",
                "unsigned": false,
                "values": [],
                "zerofill": false
            },
            "diskspace_percentage": {
                "name": "diskspace_percentage",
                "type": "FLOAT",
                "length": 4,
                "decimals": 2,
                "values": [],
                "allow_null": false,
                "default": "0.00",
                "comment": "",
                "unsigned": false,
                "zerofill": false,
                "auto_increment": false,
                "binary": false
            },
            "uptime": {
                "allow_null": false,
                "auto_increment": false,
                "binary": false,
                "comment": "",
                "decimals": null,
                "default": "0",
                "length": 11,
                "name": "uptime",
                "type": "INT",
                "unsigned": false,
                "values": [],
                "zerofill": false
            },
            "status": {
                "allow_null": false,
                "auto_increment": false,
                "binary": false,
                "comment": "",
                "decimals": null,
                "default": "offline",
                "length": 0,
                "name": "status",
                "type": "ENUM",
                "unsigned": false,
                "values": [
                    "offline",
                    "online"
                ],
                "zerofill": false
            },
            "checked_at": {
                "allow_null": false,
                "auto_increment": false,
                "binary": false,
                "comment": "",
                "decimals": null,
                "default": "CURRENT_TIMESTAMP",
                "length": 0,
                "name": "checked_at",
                "type": "TIMESTAMP",
                "unsigned": false,
                "values": [],
                "zerofill": false
            },
            "cpu_usage": {
                "name": "cpu_usage",
                "type": "FLOAT",
                "length": 4,
                "decimals": 2,
                "values": null,
                "allow_null": false,
                "default": "0.00",
                "comment": "",
                "unsigned": false,
                "zerofill": false,
                "auto_increment": false,
                "binary": false
            }
        },
        "indexes": {
            "PRIMARY": {
                "type": "primary",
                "name": "PRIMARY",
                "length": [
                    null
                ],
                "columns": [
                    "id"
                ]
            }
        },
        "collation": "utf8mb4_unicode_ci",
        "engine": "InnoDB"
    }
}